C:\Users\sonia\Documents\NetBeansProjects\ZKS\zks_2021_semestral_work_shashsof\src\test\java\cz\cvut\fel\pjv\CombatTests.java
C:\Users\sonia\Documents\NetBeansProjects\ZKS\zks_2021_semestral_work_shashsof\src\test\java\cz\cvut\fel\pjv\ChestTests.java
C:\Users\sonia\Documents\NetBeansProjects\ZKS\zks_2021_semestral_work_shashsof\src\test\java\cz\cvut\fel\pjv\MovingAndCollisionsTests.java
C:\Users\sonia\Documents\NetBeansProjects\ZKS\zks_2021_semestral_work_shashsof\src\test\java\cz\cvut\fel\pjv\UserActionHandlerTest.java
C:\Users\sonia\Documents\NetBeansProjects\ZKS\zks_2021_semestral_work_shashsof\src\test\java\cz\cvut\fel\pjv\ProcessTests.java
C:\Users\sonia\Documents\NetBeansProjects\ZKS\zks_2021_semestral_work_shashsof\src\test\java\cz\cvut\fel\pjv\GameLoopHandlerTest.java
